-- Merging decision tree log ---
manifest
ADDED from C:\Users\Frank\Dropbox\Frank Folder\GitHub\shopifymobiledev\android\app\src\main\AndroidManifest.xml:1:1-26:12
INJECTED from C:\Users\Frank\Dropbox\Frank Folder\GitHub\shopifymobiledev\android\app\src\main\AndroidManifest.xml:1:1-26:12
INJECTED from C:\Users\Frank\Dropbox\Frank Folder\GitHub\shopifymobiledev\android\app\src\main\AndroidManifest.xml:1:1-26:12
INJECTED from C:\Users\Frank\Dropbox\Frank Folder\GitHub\shopifymobiledev\android\app\src\main\AndroidManifest.xml:1:1-26:12
MERGED from [com.facebook.react:react-native:0.20.1] C:\Users\Frank\.gradle\caches\transforms-1\files-1.1\react-native-0.20.1.aar\54a76104b8ef7c9148118d151461e7a0\AndroidManifest.xml:2:1-15:12
MERGED from [com.android.support:appcompat-v7:27.1.1] C:\Users\Frank\.gradle\caches\transforms-1\files-1.1\appcompat-v7-27.1.1.aar\d5fbf74b343c229fe4dcb388a8884896\AndroidManifest.xml:17:1-22:12
MERGED from [com.android.support:recyclerview-v7:23.0.1] C:\Users\Frank\.gradle\caches\transforms-1\files-1.1\recyclerview-v7-23.0.1.aar\f86c4dafc6d2762eac35c03eca01b8fc\AndroidManifest.xml:17:1-22:12
MERGED from [com.android.support:support-fragment:27.1.1] C:\Users\Frank\.gradle\caches\transforms-1\files-1.1\support-fragment-27.1.1.aar\0585609e7620e1437ce15acd7f5541b3\AndroidManifest.xml:17:1-22:12
MERGED from [com.android.support:animated-vector-drawable:27.1.1] C:\Users\Frank\.gradle\caches\transforms-1\files-1.1\animated-vector-drawable-27.1.1.aar\94a853c8a7092ed6847bb34c3d0269dd\AndroidManifest.xml:17:1-22:12
MERGED from [com.android.support:support-core-ui:27.1.1] C:\Users\Frank\.gradle\caches\transforms-1\files-1.1\support-core-ui-27.1.1.aar\e99caf13014f00b0aaf0964d0dd403fa\AndroidManifest.xml:17:1-22:12
MERGED from [com.android.support:support-core-utils:27.1.1] C:\Users\Frank\.gradle\caches\transforms-1\files-1.1\support-core-utils-27.1.1.aar\67c36c7f09461de6b5f0074774ecfe1f\AndroidManifest.xml:17:1-22:12
MERGED from [com.android.support:support-vector-drawable:27.1.1] C:\Users\Frank\.gradle\caches\transforms-1\files-1.1\support-vector-drawable-27.1.1.aar\4f0d4297ce2da0e1156feabb32d72918\AndroidManifest.xml:17:1-22:12
MERGED from [com.android.support:support-compat:27.1.1] C:\Users\Frank\.gradle\caches\transforms-1\files-1.1\support-compat-27.1.1.aar\d039ff073c4e9a225f7791adc079dadc\AndroidManifest.xml:17:1-22:12
MERGED from [com.facebook.fresco:fresco:0.8.1] C:\Users\Frank\.gradle\caches\transforms-1\files-1.1\fresco-0.8.1.aar\bb6b7271bbd31b2d067f3023dfaebdf9\AndroidManifest.xml:2:1-9:12
MERGED from [com.facebook.fresco:imagepipeline-okhttp:0.8.1] C:\Users\Frank\.gradle\caches\transforms-1\files-1.1\imagepipeline-okhttp-0.8.1.aar\1c8d2364500ceff53eee516a0d474b88\AndroidManifest.xml:2:1-9:12
MERGED from [com.facebook.fresco:imagepipeline:0.8.1] C:\Users\Frank\.gradle\caches\transforms-1\files-1.1\imagepipeline-0.8.1.aar\92d44010a235b70bc243f32a25439f72\AndroidManifest.xml:2:1-9:12
MERGED from [com.facebook.fresco:drawee:0.8.1] C:\Users\Frank\.gradle\caches\transforms-1\files-1.1\drawee-0.8.1.aar\60cd08c936a0dd8f88d90fa4e80d2847\AndroidManifest.xml:2:1-9:12
MERGED from [com.android.support:support-v4:23.0.1] C:\Users\Frank\.gradle\caches\transforms-1\files-1.1\support-v4-23.0.1.aar\63844b357afaf7327aec864aea5cc29a\AndroidManifest.xml:17:1-24:12
MERGED from [org.webkit:android-jsc:r174650] C:\Users\Frank\.gradle\caches\transforms-1\files-1.1\android-jsc-r174650.aar\7668229f97173cb1a2f372f93b93fe5a\AndroidManifest.xml:1:1-3:12
MERGED from [com.facebook.fresco:fbcore:0.8.1] C:\Users\Frank\.gradle\caches\transforms-1\files-1.1\fbcore-0.8.1.aar\637f4f2d81ed3677ab4caa2e72626de2\AndroidManifest.xml:2:1-9:12
MERGED from [android.arch.lifecycle:livedata-core:1.1.0] C:\Users\Frank\.gradle\caches\transforms-1\files-1.1\livedata-core-1.1.0.aar\e1e5bc3658a1dd5b23143abe1dd498f8\AndroidManifest.xml:17:1-22:12
MERGED from [android.arch.lifecycle:viewmodel:1.1.0] C:\Users\Frank\.gradle\caches\transforms-1\files-1.1\viewmodel-1.1.0.aar\663fbbb0e2befead3ee865aaa240fac8\AndroidManifest.xml:17:1-22:12
MERGED from [android.arch.lifecycle:runtime:1.1.0] C:\Users\Frank\.gradle\caches\transforms-1\files-1.1\runtime-1.1.0.aar\07e8d90dedc8d0f36eb7632d54d4888c\AndroidManifest.xml:17:1-22:12
MERGED from [android.arch.core:runtime:1.1.0] C:\Users\Frank\.gradle\caches\transforms-1\files-1.1\runtime-1.1.0.aar\a64fb5691e774be3dfe12bd013a443e8\AndroidManifest.xml:17:1-22:12
INJECTED from C:\Users\Frank\Dropbox\Frank Folder\GitHub\shopifymobiledev\android\app\src\main\AndroidManifest.xml:1:1-26:12
INJECTED from C:\Users\Frank\Dropbox\Frank Folder\GitHub\shopifymobiledev\android\app\src\main\AndroidManifest.xml:1:1-26:12
INJECTED from C:\Users\Frank\Dropbox\Frank Folder\GitHub\shopifymobiledev\android\app\src\main\AndroidManifest.xml:1:1-26:12
	package
		ADDED from C:\Users\Frank\Dropbox\Frank Folder\GitHub\shopifymobiledev\android\app\src\main\AndroidManifest.xml:2:5-32
		INJECTED from C:\Users\Frank\Dropbox\Frank Folder\GitHub\shopifymobiledev\android\app\src\main\AndroidManifest.xml
		INJECTED from C:\Users\Frank\Dropbox\Frank Folder\GitHub\shopifymobiledev\android\app\src\main\AndroidManifest.xml
	android:versionName
		INJECTED from C:\Users\Frank\Dropbox\Frank Folder\GitHub\shopifymobiledev\android\app\src\main\AndroidManifest.xml
		ADDED from C:\Users\Frank\Dropbox\Frank Folder\GitHub\shopifymobiledev\android\app\src\main\AndroidManifest.xml:1:1-26:12
		INJECTED from C:\Users\Frank\Dropbox\Frank Folder\GitHub\shopifymobiledev\android\app\src\main\AndroidManifest.xml
	android:versionCode
		INJECTED from C:\Users\Frank\Dropbox\Frank Folder\GitHub\shopifymobiledev\android\app\src\main\AndroidManifest.xml
		ADDED from C:\Users\Frank\Dropbox\Frank Folder\GitHub\shopifymobiledev\android\app\src\main\AndroidManifest.xml:1:1-26:12
		INJECTED from C:\Users\Frank\Dropbox\Frank Folder\GitHub\shopifymobiledev\android\app\src\main\AndroidManifest.xml
	xmlns:android
		ADDED from C:\Users\Frank\Dropbox\Frank Folder\GitHub\shopifymobiledev\android\app\src\main\AndroidManifest.xml:1:11-69
uses-permission#android.permission.INTERNET
ADDED from C:\Users\Frank\Dropbox\Frank Folder\GitHub\shopifymobiledev\android\app\src\main\AndroidManifest.xml:4:5-67
	android:name
		ADDED from C:\Users\Frank\Dropbox\Frank Folder\GitHub\shopifymobiledev\android\app\src\main\AndroidManifest.xml:4:22-64
uses-permission#android.permission.SYSTEM_ALERT_WINDOW
ADDED from C:\Users\Frank\Dropbox\Frank Folder\GitHub\shopifymobiledev\android\app\src\main\AndroidManifest.xml:5:5-77
MERGED from [com.facebook.react:react-native:0.20.1] C:\Users\Frank\.gradle\caches\transforms-1\files-1.1\react-native-0.20.1.aar\54a76104b8ef7c9148118d151461e7a0\AndroidManifest.xml:11:5-78
MERGED from [com.facebook.react:react-native:0.20.1] C:\Users\Frank\.gradle\caches\transforms-1\files-1.1\react-native-0.20.1.aar\54a76104b8ef7c9148118d151461e7a0\AndroidManifest.xml:11:5-78
	android:name
		ADDED from C:\Users\Frank\Dropbox\Frank Folder\GitHub\shopifymobiledev\android\app\src\main\AndroidManifest.xml:5:22-75
application
ADDED from C:\Users\Frank\Dropbox\Frank Folder\GitHub\shopifymobiledev\android\app\src\main\AndroidManifest.xml:7:5-24:19
MERGED from [com.facebook.react:react-native:0.20.1] C:\Users\Frank\.gradle\caches\transforms-1\files-1.1\react-native-0.20.1.aar\54a76104b8ef7c9148118d151461e7a0\AndroidManifest.xml:13:5-20
MERGED from [com.facebook.react:react-native:0.20.1] C:\Users\Frank\.gradle\caches\transforms-1\files-1.1\react-native-0.20.1.aar\54a76104b8ef7c9148118d151461e7a0\AndroidManifest.xml:13:5-20
MERGED from [com.android.support:support-v4:23.0.1] C:\Users\Frank\.gradle\caches\transforms-1\files-1.1\support-v4-23.0.1.aar\63844b357afaf7327aec864aea5cc29a\AndroidManifest.xml:22:5-20
MERGED from [com.android.support:support-v4:23.0.1] C:\Users\Frank\.gradle\caches\transforms-1\files-1.1\support-v4-23.0.1.aar\63844b357afaf7327aec864aea5cc29a\AndroidManifest.xml:22:5-20
MERGED from [org.webkit:android-jsc:r174650] C:\Users\Frank\.gradle\caches\transforms-1\files-1.1\android-jsc-r174650.aar\7668229f97173cb1a2f372f93b93fe5a\AndroidManifest.xml:2:3-17
MERGED from [org.webkit:android-jsc:r174650] C:\Users\Frank\.gradle\caches\transforms-1\files-1.1\android-jsc-r174650.aar\7668229f97173cb1a2f372f93b93fe5a\AndroidManifest.xml:2:3-17
	android:label
		ADDED from C:\Users\Frank\Dropbox\Frank Folder\GitHub\shopifymobiledev\android\app\src\main\AndroidManifest.xml:9:7-39
	android:icon
		ADDED from C:\Users\Frank\Dropbox\Frank Folder\GitHub\shopifymobiledev\android\app\src\main\AndroidManifest.xml:10:7-41
	android:allowBackup
		ADDED from C:\Users\Frank\Dropbox\Frank Folder\GitHub\shopifymobiledev\android\app\src\main\AndroidManifest.xml:11:7-34
	android:theme
		ADDED from C:\Users\Frank\Dropbox\Frank Folder\GitHub\shopifymobiledev\android\app\src\main\AndroidManifest.xml:12:7-38
	android:name
		ADDED from C:\Users\Frank\Dropbox\Frank Folder\GitHub\shopifymobiledev\android\app\src\main\AndroidManifest.xml:8:7-38
activity#com.mobileshopify.MainActivity
ADDED from C:\Users\Frank\Dropbox\Frank Folder\GitHub\shopifymobiledev\android\app\src\main\AndroidManifest.xml:13:7-22:18
	android:label
		ADDED from C:\Users\Frank\Dropbox\Frank Folder\GitHub\shopifymobiledev\android\app\src\main\AndroidManifest.xml:15:9-41
	android:windowSoftInputMode
		ADDED from C:\Users\Frank\Dropbox\Frank Folder\GitHub\shopifymobiledev\android\app\src\main\AndroidManifest.xml:17:9-51
	android:configChanges
		ADDED from C:\Users\Frank\Dropbox\Frank Folder\GitHub\shopifymobiledev\android\app\src\main\AndroidManifest.xml:16:9-79
	android:name
		ADDED from C:\Users\Frank\Dropbox\Frank Folder\GitHub\shopifymobiledev\android\app\src\main\AndroidManifest.xml:14:9-37
intent-filter#action:name:android.intent.action.MAIN+category:name:android.intent.category.LAUNCHER
ADDED from C:\Users\Frank\Dropbox\Frank Folder\GitHub\shopifymobiledev\android\app\src\main\AndroidManifest.xml:18:9-21:25
action#android.intent.action.MAIN
ADDED from C:\Users\Frank\Dropbox\Frank Folder\GitHub\shopifymobiledev\android\app\src\main\AndroidManifest.xml:19:13-65
	android:name
		ADDED from C:\Users\Frank\Dropbox\Frank Folder\GitHub\shopifymobiledev\android\app\src\main\AndroidManifest.xml:19:21-62
category#android.intent.category.LAUNCHER
ADDED from C:\Users\Frank\Dropbox\Frank Folder\GitHub\shopifymobiledev\android\app\src\main\AndroidManifest.xml:20:13-73
	android:name
		ADDED from C:\Users\Frank\Dropbox\Frank Folder\GitHub\shopifymobiledev\android\app\src\main\AndroidManifest.xml:20:23-70
activity#com.facebook.react.devsupport.DevSettingsActivity
ADDED from C:\Users\Frank\Dropbox\Frank Folder\GitHub\shopifymobiledev\android\app\src\main\AndroidManifest.xml:23:7-84
	android:name
		ADDED from C:\Users\Frank\Dropbox\Frank Folder\GitHub\shopifymobiledev\android\app\src\main\AndroidManifest.xml:23:17-81
uses-sdk
INJECTED from C:\Users\Frank\Dropbox\Frank Folder\GitHub\shopifymobiledev\android\app\src\main\AndroidManifest.xml reason: use-sdk injection requested
INJECTED from C:\Users\Frank\Dropbox\Frank Folder\GitHub\shopifymobiledev\android\app\src\main\AndroidManifest.xml
INJECTED from C:\Users\Frank\Dropbox\Frank Folder\GitHub\shopifymobiledev\android\app\src\main\AndroidManifest.xml
MERGED from [com.facebook.react:react-native:0.20.1] C:\Users\Frank\.gradle\caches\transforms-1\files-1.1\react-native-0.20.1.aar\54a76104b8ef7c9148118d151461e7a0\AndroidManifest.xml:7:5-9:41
MERGED from [com.facebook.react:react-native:0.20.1] C:\Users\Frank\.gradle\caches\transforms-1\files-1.1\react-native-0.20.1.aar\54a76104b8ef7c9148118d151461e7a0\AndroidManifest.xml:7:5-9:41
MERGED from [com.android.support:appcompat-v7:27.1.1] C:\Users\Frank\.gradle\caches\transforms-1\files-1.1\appcompat-v7-27.1.1.aar\d5fbf74b343c229fe4dcb388a8884896\AndroidManifest.xml:20:5-44
MERGED from [com.android.support:appcompat-v7:27.1.1] C:\Users\Frank\.gradle\caches\transforms-1\files-1.1\appcompat-v7-27.1.1.aar\d5fbf74b343c229fe4dcb388a8884896\AndroidManifest.xml:20:5-44
MERGED from [com.android.support:recyclerview-v7:23.0.1] C:\Users\Frank\.gradle\caches\transforms-1\files-1.1\recyclerview-v7-23.0.1.aar\f86c4dafc6d2762eac35c03eca01b8fc\AndroidManifest.xml:20:5-43
MERGED from [com.android.support:recyclerview-v7:23.0.1] C:\Users\Frank\.gradle\caches\transforms-1\files-1.1\recyclerview-v7-23.0.1.aar\f86c4dafc6d2762eac35c03eca01b8fc\AndroidManifest.xml:20:5-43
MERGED from [com.android.support:support-fragment:27.1.1] C:\Users\Frank\.gradle\caches\transforms-1\files-1.1\support-fragment-27.1.1.aar\0585609e7620e1437ce15acd7f5541b3\AndroidManifest.xml:20:5-44
MERGED from [com.android.support:support-fragment:27.1.1] C:\Users\Frank\.gradle\caches\transforms-1\files-1.1\support-fragment-27.1.1.aar\0585609e7620e1437ce15acd7f5541b3\AndroidManifest.xml:20:5-44
MERGED from [com.android.support:animated-vector-drawable:27.1.1] C:\Users\Frank\.gradle\caches\transforms-1\files-1.1\animated-vector-drawable-27.1.1.aar\94a853c8a7092ed6847bb34c3d0269dd\AndroidManifest.xml:20:5-44
MERGED from [com.android.support:animated-vector-drawable:27.1.1] C:\Users\Frank\.gradle\caches\transforms-1\files-1.1\animated-vector-drawable-27.1.1.aar\94a853c8a7092ed6847bb34c3d0269dd\AndroidManifest.xml:20:5-44
MERGED from [com.android.support:support-core-ui:27.1.1] C:\Users\Frank\.gradle\caches\transforms-1\files-1.1\support-core-ui-27.1.1.aar\e99caf13014f00b0aaf0964d0dd403fa\AndroidManifest.xml:20:5-44
MERGED from [com.android.support:support-core-ui:27.1.1] C:\Users\Frank\.gradle\caches\transforms-1\files-1.1\support-core-ui-27.1.1.aar\e99caf13014f00b0aaf0964d0dd403fa\AndroidManifest.xml:20:5-44
MERGED from [com.android.support:support-core-utils:27.1.1] C:\Users\Frank\.gradle\caches\transforms-1\files-1.1\support-core-utils-27.1.1.aar\67c36c7f09461de6b5f0074774ecfe1f\AndroidManifest.xml:20:5-44
MERGED from [com.android.support:support-core-utils:27.1.1] C:\Users\Frank\.gradle\caches\transforms-1\files-1.1\support-core-utils-27.1.1.aar\67c36c7f09461de6b5f0074774ecfe1f\AndroidManifest.xml:20:5-44
MERGED from [com.android.support:support-vector-drawable:27.1.1] C:\Users\Frank\.gradle\caches\transforms-1\files-1.1\support-vector-drawable-27.1.1.aar\4f0d4297ce2da0e1156feabb32d72918\AndroidManifest.xml:20:5-44
MERGED from [com.android.support:support-vector-drawable:27.1.1] C:\Users\Frank\.gradle\caches\transforms-1\files-1.1\support-vector-drawable-27.1.1.aar\4f0d4297ce2da0e1156feabb32d72918\AndroidManifest.xml:20:5-44
MERGED from [com.android.support:support-compat:27.1.1] C:\Users\Frank\.gradle\caches\transforms-1\files-1.1\support-compat-27.1.1.aar\d039ff073c4e9a225f7791adc079dadc\AndroidManifest.xml:20:5-44
MERGED from [com.android.support:support-compat:27.1.1] C:\Users\Frank\.gradle\caches\transforms-1\files-1.1\support-compat-27.1.1.aar\d039ff073c4e9a225f7791adc079dadc\AndroidManifest.xml:20:5-44
MERGED from [com.facebook.fresco:fresco:0.8.1] C:\Users\Frank\.gradle\caches\transforms-1\files-1.1\fresco-0.8.1.aar\bb6b7271bbd31b2d067f3023dfaebdf9\AndroidManifest.xml:5:5-7:41
MERGED from [com.facebook.fresco:fresco:0.8.1] C:\Users\Frank\.gradle\caches\transforms-1\files-1.1\fresco-0.8.1.aar\bb6b7271bbd31b2d067f3023dfaebdf9\AndroidManifest.xml:5:5-7:41
MERGED from [com.facebook.fresco:imagepipeline-okhttp:0.8.1] C:\Users\Frank\.gradle\caches\transforms-1\files-1.1\imagepipeline-okhttp-0.8.1.aar\1c8d2364500ceff53eee516a0d474b88\AndroidManifest.xml:5:5-7:41
MERGED from [com.facebook.fresco:imagepipeline-okhttp:0.8.1] C:\Users\Frank\.gradle\caches\transforms-1\files-1.1\imagepipeline-okhttp-0.8.1.aar\1c8d2364500ceff53eee516a0d474b88\AndroidManifest.xml:5:5-7:41
MERGED from [com.facebook.fresco:imagepipeline:0.8.1] C:\Users\Frank\.gradle\caches\transforms-1\files-1.1\imagepipeline-0.8.1.aar\92d44010a235b70bc243f32a25439f72\AndroidManifest.xml:5:5-7:41
MERGED from [com.facebook.fresco:imagepipeline:0.8.1] C:\Users\Frank\.gradle\caches\transforms-1\files-1.1\imagepipeline-0.8.1.aar\92d44010a235b70bc243f32a25439f72\AndroidManifest.xml:5:5-7:41
MERGED from [com.facebook.fresco:drawee:0.8.1] C:\Users\Frank\.gradle\caches\transforms-1\files-1.1\drawee-0.8.1.aar\60cd08c936a0dd8f88d90fa4e80d2847\AndroidManifest.xml:5:5-7:41
MERGED from [com.facebook.fresco:drawee:0.8.1] C:\Users\Frank\.gradle\caches\transforms-1\files-1.1\drawee-0.8.1.aar\60cd08c936a0dd8f88d90fa4e80d2847\AndroidManifest.xml:5:5-7:41
MERGED from [com.android.support:support-v4:23.0.1] C:\Users\Frank\.gradle\caches\transforms-1\files-1.1\support-v4-23.0.1.aar\63844b357afaf7327aec864aea5cc29a\AndroidManifest.xml:20:5-43
MERGED from [com.android.support:support-v4:23.0.1] C:\Users\Frank\.gradle\caches\transforms-1\files-1.1\support-v4-23.0.1.aar\63844b357afaf7327aec864aea5cc29a\AndroidManifest.xml:20:5-43
MERGED from [com.facebook.fresco:fbcore:0.8.1] C:\Users\Frank\.gradle\caches\transforms-1\files-1.1\fbcore-0.8.1.aar\637f4f2d81ed3677ab4caa2e72626de2\AndroidManifest.xml:5:5-7:41
MERGED from [com.facebook.fresco:fbcore:0.8.1] C:\Users\Frank\.gradle\caches\transforms-1\files-1.1\fbcore-0.8.1.aar\637f4f2d81ed3677ab4caa2e72626de2\AndroidManifest.xml:5:5-7:41
MERGED from [android.arch.lifecycle:livedata-core:1.1.0] C:\Users\Frank\.gradle\caches\transforms-1\files-1.1\livedata-core-1.1.0.aar\e1e5bc3658a1dd5b23143abe1dd498f8\AndroidManifest.xml:20:5-44
MERGED from [android.arch.lifecycle:livedata-core:1.1.0] C:\Users\Frank\.gradle\caches\transforms-1\files-1.1\livedata-core-1.1.0.aar\e1e5bc3658a1dd5b23143abe1dd498f8\AndroidManifest.xml:20:5-44
MERGED from [android.arch.lifecycle:viewmodel:1.1.0] C:\Users\Frank\.gradle\caches\transforms-1\files-1.1\viewmodel-1.1.0.aar\663fbbb0e2befead3ee865aaa240fac8\AndroidManifest.xml:20:5-44
MERGED from [android.arch.lifecycle:viewmodel:1.1.0] C:\Users\Frank\.gradle\caches\transforms-1\files-1.1\viewmodel-1.1.0.aar\663fbbb0e2befead3ee865aaa240fac8\AndroidManifest.xml:20:5-44
MERGED from [android.arch.lifecycle:runtime:1.1.0] C:\Users\Frank\.gradle\caches\transforms-1\files-1.1\runtime-1.1.0.aar\07e8d90dedc8d0f36eb7632d54d4888c\AndroidManifest.xml:20:5-44
MERGED from [android.arch.lifecycle:runtime:1.1.0] C:\Users\Frank\.gradle\caches\transforms-1\files-1.1\runtime-1.1.0.aar\07e8d90dedc8d0f36eb7632d54d4888c\AndroidManifest.xml:20:5-44
MERGED from [android.arch.core:runtime:1.1.0] C:\Users\Frank\.gradle\caches\transforms-1\files-1.1\runtime-1.1.0.aar\a64fb5691e774be3dfe12bd013a443e8\AndroidManifest.xml:20:5-44
MERGED from [android.arch.core:runtime:1.1.0] C:\Users\Frank\.gradle\caches\transforms-1\files-1.1\runtime-1.1.0.aar\a64fb5691e774be3dfe12bd013a443e8\AndroidManifest.xml:20:5-44
INJECTED from C:\Users\Frank\Dropbox\Frank Folder\GitHub\shopifymobiledev\android\app\src\main\AndroidManifest.xml
INJECTED from C:\Users\Frank\Dropbox\Frank Folder\GitHub\shopifymobiledev\android\app\src\main\AndroidManifest.xml
	android:targetSdkVersion
		INJECTED from C:\Users\Frank\Dropbox\Frank Folder\GitHub\shopifymobiledev\android\app\src\main\AndroidManifest.xml
		ADDED from C:\Users\Frank\Dropbox\Frank Folder\GitHub\shopifymobiledev\android\app\src\main\AndroidManifest.xml
		INJECTED from C:\Users\Frank\Dropbox\Frank Folder\GitHub\shopifymobiledev\android\app\src\main\AndroidManifest.xml
	android:minSdkVersion
		INJECTED from C:\Users\Frank\Dropbox\Frank Folder\GitHub\shopifymobiledev\android\app\src\main\AndroidManifest.xml
		ADDED from C:\Users\Frank\Dropbox\Frank Folder\GitHub\shopifymobiledev\android\app\src\main\AndroidManifest.xml
		INJECTED from C:\Users\Frank\Dropbox\Frank Folder\GitHub\shopifymobiledev\android\app\src\main\AndroidManifest.xml
uses-permission#android.permission.WRITE_EXTERNAL_STORAGE
IMPLIED from C:\Users\Frank\Dropbox\Frank Folder\GitHub\shopifymobiledev\android\app\src\main\AndroidManifest.xml:1:1-26:12 reason: org.webkit.android_jsc has a targetSdkVersion < 4
uses-permission#android.permission.READ_PHONE_STATE
IMPLIED from C:\Users\Frank\Dropbox\Frank Folder\GitHub\shopifymobiledev\android\app\src\main\AndroidManifest.xml:1:1-26:12 reason: org.webkit.android_jsc has a targetSdkVersion < 4
uses-permission#android.permission.READ_EXTERNAL_STORAGE
IMPLIED from C:\Users\Frank\Dropbox\Frank Folder\GitHub\shopifymobiledev\android\app\src\main\AndroidManifest.xml:1:1-26:12 reason: org.webkit.android_jsc requested WRITE_EXTERNAL_STORAGE
